12 Summarizing & Aggregating Data | Data Processing and Analysis in R (2025)
…
As you see this command generates a data frame (that we save in summary_df) with the number of observations (n_obs), the mean grade for statistics and cognitive psychology (m_statistics & m_cog_psy) and a useless variable that is sum off all scores in statistics and cognitive psychology. The mean grade in statistics is lower than in cog_psy.

Ok, fine, but you may think now: “I could get the same information much simpler with the base-R. Why shall I use this strange summarise() thing?” The actual power of it becomes clear if used together with the group_by() command described in the next section.

12.2 Grouping data by group_by()

If you want that all Tidyverse-operations will be done separately for different parts of a tibble or data frame, you can group your data and use a grouped tibble. You group a data with the group_by() command:

teach_grouped <- group_by(teach, city)
print(teach_grouped)

## # A tibble: 60 × 6
## # Groups:   city [5]
##    student teaching_method city      time  statistics cog_psy
##      <dbl> <chr>           <chr>     <chr>      <dbl>   <dbl>
##  1      28 method_A        Leiden    after         37      35
##  2      19 method_A        Rotterdam after         34      32
##  3       4 method_A        Utrecht   after         32      37
##  4      17 method_B        Rotterdam after         30      33
##  5      10 method_A        Groningen after         29      35
##  6       2 method_B        Nijmegen  after         28      40
##  7      11 method_B        Utrecht   after         28      31
##  8      16 method_A        Nijmegen  after         28      30
##  9      25 method_A        Groningen after         28      32
## 10       5 method_B        Nijmegen  after         27      29
## # ℹ 50 more rows
…
