11 Transforming Data | Data Processing and Analysis in R (2025)
…
Students from universities in different Dutch cities were taught in statistics and cognitive psychology. Two teaching methods were compared (method A & B). There was in addition a control condition with no teaching at all. The knowledge about the subjects was tested before and after the courses with a test of 40 questions and 4 choices. The results of the test (number of correct answers) for the two subjects are shown in the variables statistcs and cog_psy.

Let’s load Tidyverse and the dataset:

library(tidyverse)
teach <- read_csv("data/teaching_method.csv")

The import dataset is a tibble and looks in the console of RStudio like this:

print(teach)

## # A tibble: 60 × 6
##    student teaching_method city      time   statistics cog_psy
##      <dbl> <chr>           <chr>     <chr>       <dbl>   <dbl>
##  1       1 method_A        Groningen before          6      10
##  2       2 method_B        Nijmegen  before         11      13
##  3       3 control         Rotterdam before         12      10
##  4       4 method_A        Utrecht   before         10       9
##  5       5 method_B        Nijmegen  before          9       8
##  6       6 control         Utrecht   before          8      11
##  7       7 method_A        Leiden    before          8      12
##  8       8 method_B        Utrecht   before          9      12
##  9       9 control         Leiden    before          8      10
## 10      10 method_A        Groningen before         10      12
## # ℹ 50 more rows
…
